{
  "type": "service_account",
  "project_id": "esh-care",
  "private_key_id": "e3034a5c87c00516644057ee1473bd94fb4aeb71",
  "private_key": "-----BEGIN PRIVATE KEY-----\nMIIEvgIBADANBgkqhkiG9w0BAQEFAASCBKgwggSkAgEAAoIBAQC/wE836KMbPBDd\nit3mSpdVjgVkMyJojEbF8cQtSw7FI0szoFSD7RErkXbfS+IBtfrbCodoGaDUV4Rn\nWlrxHTPUvzfYK/F1RlHCd2GxvYLlwqnA/cosLn/XfiJWaFjUB336gHNsajwhH8JO\nfmrU5u/1ngif1lsmBhAuAoiOG71hih9spffIsuIcmOMrwOaXqcu0xx3wdyRHnr9Y\n6RJTGCQrnIXFdTbTsAFENtA9mM8o9UFA2EA3iParO43eynE/mjHtPHBWWudncRr2\nzlQBy/p6/fYJEQ07jfWqAQ4Q3f7tyAd4ymGMRbkHytcxj3FeqH3QSUIV1O2pd8lR\nQgTubIF5AgMBAAECggEAAJ2rA3h1UaiTO0rvZIZ3zvgKT2SUpzZQIeGhai3UCdEP\ntEY/Dz9rLzMj6RqyyqOdfyedALoYWKZBUB2rrhuUZ4oHsWOOvnwv1gqRH0OHEJrb\n9bk69YJeub/3d0SViHTPtEbGWCJNOCQEeUERscZeHfFYgL7tAwXA9ozeiGpRZOdN\nvuF+TlxkJYJfpe8igndAvaPWsupHzSR00kErCSMFxbBsuwBkOQIPw3NOhKH0yrEW\nOsz1mTM9nj56Dt1rMfTPSdbYVLWXiTvg7TTgVR7JvDZvnrv7CLemarZKSS6eD3z5\nVTeyT3hOdlGT6fcdGwzjXPFA3AVeVrkO1BKfSmYCgQKBgQDmpPHhRXfs2Mc2ONMk\nFnsulJB4qHoXIcGpz/rgOPQZFFwzr7Gz+WdUFQ9eZKtu2Lpy889OonHlX78UtAc+\nfTh3FXt5crkubIOUIxbw//l+CaI2ayuqEdMkhgk1CHrLqDTpEik5cIl7FbPNM0Ga\nhWiv6YUZAT9gNkoI7WoBv/HdYQKBgQDU1MpcAq+zGw2vAclX+AuzwUHJdQLea3qe\ntB3hdxsIZqtwlBhefYK4uRoa91y+/kl+x6Lo4BQ/hvZURFR0lWDS/BN0sd0D/D9r\n99UijiQk4QlA7gonVK3iVZQgNhxeURYSnVISn4utre/W3NOHmWimlSR6Op2gzBVd\nuQjTHk3DGQKBgQCpxy1N+AcJT6GE5lt2Kx5N8YpPZyVINc8LI0+3EfWNKJGecmxK\n4QIQwNfpUg1nsR2+VH57kdRpVgugP809UIvqDOQxSCPMapCI0TOn/6U2A/1mNYmU\nzT4xmoDYiv9pPs6D6pxx7ccl1ZnfKSXXivC+3RTejS6LsirZW3o3A4YUwQKBgQCz\npfY12lKilUhkm9ZvecGu9oboXOuSARkc0x6RzS61VayKt4cmYz0vXZdKgdf4o743\n1J2Pgm20/d/5W0AKtHhpPzvQ+b18erSyFx0CMQcTVhywgP1zG4g3D1OcKPCjMEC4\nb7DyZVfKv5I+RGINCJIMYsHKpqWdMAcs+F4Zjm/HKQKBgCjPMB3NXwrW2t1G0bBb\nR0hnevDylR4SVHWPv6q7/kETJHRGOkAURxzyfFiQx51IJ7y4olAgz2jRyMHTISiU\nlV9dRt8zVN50MeQWHKU/HcTY8arybMuxKmP9YkPaP0f3VFJTMAO1IkC+fkG6MrDX\n4dltRmorDyuZN7IGCzXCMugm\n-----END PRIVATE KEY-----\n",
  "client_email": "firebase-adminsdk-jgkee@esh-care.iam.gserviceaccount.com",
  "client_id": "117414734168707179982",
  "auth_uri": "https://accounts.google.com/o/oauth2/auth",
  "token_uri": "https://oauth2.googleapis.com/token",
  "auth_provider_x509_cert_url": "https://www.googleapis.com/oauth2/v1/certs",
  "client_x509_cert_url": "https://www.googleapis.com/robot/v1/metadata/x509/firebase-adminsdk-jgkee%40esh-care.iam.gserviceaccount.com"
}
