{
  "type": "service_account",
  "project_id": "youappmanager-204913",
  "private_key_id": "e41053562a024bbc3371f40cffac12ebeff7795a",
  "private_key": "-----BEGIN PRIVATE KEY-----\nMIIEvAIBADANBgkqhkiG9w0BAQEFAASCBKYwggSiAgEAAoIBAQChGFApZGgArvHs\nDX0Bi8iMkHrQ5Wc6rbJZ+w6WVEiJLwRBXpsRpLh2W2PrMiqbNMX+JlkFNOjaybNK\nNGdRy22umrRX8Cmn9vsVKp+fl38588mxEJyTfcsLbtX42Q00ttIK06peVEF0K8F3\nULbaxWr4oqq5io2VVbM81mEB5GyG2PK6FuEs0G9YB+snIpIsNEVhZ7qiIpPuYgPI\nraOyjmPD1IVG6BA7uBYid1cDcm8j0tuhMCEUS74HGHWedo8/qzj1gFCkBgCW1h+l\n0lUWuCewvZvTUQgb2nJTI7xawpdbROrZiXZSxMqyx1qJi4P+o9z1Osj/EelHeRQr\noKLBdPvBAgMBAAECgf8QJQejnlRt/RpxtchZZ1DqBXDJjrQRxWaibe7AUiIS3Ytn\nobuYwRFbiz0wTQ7IDznohp9VTkAn7R7yyN2x7NlJLmf0iDUkiDQRovvsWpp9jFki\nTa/jeC/pLWp0TgxsxAW44A2q9na41cnF02j/89kMogDKJ4CY/sW/yxxdvC7ENMEn\n94ZU4U5ml7zWhbqW6xe9lKZtCK+Rpu5ZWa94+kuQnj870qEMRbP5TwLPf1tnhWiu\nlx7wRLkVS525ZfsgSrisZ44Sxlsf6/B5JsCZx6X2OUS2I2TosuTigps2XiT0kMBC\nu2jVGwUEbk7G3X+eKL4qdfqNs9Iymdm1rkNpEgECgYEAz27R2CPUpQ39ShtEhCue\nYHYXANUAY0xTdavdtT8YVSAmHInvdGHGcZRTUIpKkQsW4EQdOPDGDabeA/gSA+Tx\nYMyRqOIJMF3TdyZFrcWIxfseCtWgcHzE0WuHW2TmFWzMbs7TDQh7x7PNo8EEUfE4\nlb0THkhbZTCuL4/Uichy9MECgYEAxtATheaysphhLg3zNvsQLYu6ljBTRv4Zx8mO\naxK6yozZIi/1TQFIAYO8B8dWNwHwq7HlKpRBqSAfgpq2EEE9tFXTHnfqL7SGil2X\nf7ImWV+XqBahgaKFqgxswoU+SbMA3xAuogU5VpVz0gV6KI4vPb1zPg8FGOLfndhK\nVwzAxwECgYAbyJIeyx3ORcNpS6Gvuk/qR6bpG56DrlN3bV+yyRKvRDEWnXsPMZFs\n4RsPrJY0OzIDM9xeJhHA/lq6WV3AW8fg2UWhQzVL3yVVzjCDB/Q74Fizxs1Ig82w\n5yAoI6mVsQ7owJcQJdS+eNzQVCgJ+a9EjyCia7qiIRUTlcY39js/gQKBgQCUY2ue\n7nCEEm2+JRVZ/Qu3Iupx/MG7ZB6z2oFc847NbVEHTkpFXmZzEvL9z09PITiTveRw\n4lUbuWkrXvPyr+8xMTmxLQly78fXcEGKQtqSrGGSSMnk6vvezwVCLpcuBNfqpbZY\noZOJR2U55XKm4HDsIQHp2OYSDAuhUXUzAcbFAQKBgQCTTCaBrHTBVgdvMGi+S4d+\nCAq0B/+9YnuYcWCnMCwxQriZdpZKdRtnGvNY2sAbRbJGHUQoAI2qjeciovhPhG5H\nBLR0Ct0HA83b4OEwDt9EVA1FXZmPbBeYoFgrGMHRzf8rA4sFnWkQPJebsr+++uGC\nChDXZf/whNE1+y1RpJ5Wrw==\n-----END PRIVATE KEY-----\n",
  "client_email": "firebase-adminsdk-jdmtg@youappmanager-204913.iam.gserviceaccount.com",
  "client_id": "107380447389186990773",
  "auth_uri": "https://accounts.google.com/o/oauth2/auth",
  "token_uri": "https://oauth2.googleapis.com/token",
  "auth_provider_x509_cert_url": "https://www.googleapis.com/oauth2/v1/certs",
  "client_x509_cert_url": "https://www.googleapis.com/robot/v1/metadata/x509/firebase-adminsdk-jdmtg%40youappmanager-204913.iam.gserviceaccount.com"
}
