{
  "type": "service_account",
  "project_id": "youworkforpharma",
  "private_key_id": "abd298c1e92d06d30c622b511b74f11b8b817dab",
  "private_key": "-----BEGIN PRIVATE KEY-----\nMIIEvgIBADANBgkqhkiG9w0BAQEFAASCBKgwggSkAgEAAoIBAQDFdVIMyMVIYy9v\nIaqg4kHQzYkpuzzDRoUyJFRdxeuo3ZVbwy5o0bzj8C1vkMh3VrHaVkc9kr0JzVhS\nEMRNffNP1mN4F571uo3akAOqSqZDxkd6ydLZMZ6sunQlKCT0tKYnmQ2EWeUlcBDm\nUs6fHoR7Y3ChL1BSOpU4hJ82deQKJ4XAAuE28n/2NCxpEjXEvucvy8Mt8XqNu5DB\nCudEbiWVJ72LxgiJt0jFyjtlffcu58beLV6RLZgdvupqUndeMWKqYQrGei8hHWyY\nARIYviqPf95GCsOOx6mTLVAmjWfQzpt/l4cTpqymqH6IWbnrjfNUtC6PuJ59HEId\nebg71PtBAgMBAAECggEAAK3pBXnFCsfACUhz+nhLTsm80pCIHJ2mQCydhWuMpQvM\naCld4EOUbC1wnalOzNZu66ObAeaKldH1o1METsuBobQw5YLMKxvPp0is4XgxhKba\nEp1kTJSG+Mi2SmgU0hfEqTg5u9yp4FdM5gA18U3WmbtN0HvmfsktrRJjnGa3BpX5\naJIlWlhuXlKUpnBv1bxLQcjl6mQm1o8Y8uaXvt1JUa/afPGkaYL2mukI4KlP68aG\ncJUUsdma2JjxnoKfVK07jOyaa1N+eJJsRGgAntlbj04Uu6nCx/vPNAgW6zjbnIcc\nUB5IMr1fb7zrxlyZhwnm2CCZn/Yuts6UruZJLUAKAQKBgQD4xfxbBCpdqt0Qo6Yu\n1KjK7V61D56R6HgP4YRtyM+EeAj2V8wDdjfNhfXBYRWUvNwsKr9F3NLWDkeHZ5UB\nTBzcuBClM1KgDq6iSot6J07XyBXxtdWeYVR0/ff6/SEkVIkJaWWZjIZSZG82K94J\nnbTT/m09hE7ORcY7gzur1CAyAQKBgQDLMbpNptqmDdO2a9u6k550NbafMj2q2mFy\nPskT0F7kgqFL9DSn110G9Oa/ZWpm8lWJ1/5IkFgld34AHN6UaoJZto4xXj6iCFQv\nULULUuhgAw6NoRXrl67li+rBSmPHDdD14Ha+iE4qSv7fYjnC0lrOwC98fCvcBQVF\nU0lMRWZJQQKBgQDOPXUlD6L/3HNBJCrVkEAPXBK0EKrpU8yVfeUIDv7bV5g2gjsE\nc7F3laNUGmSF1rzBcP75sESqaVQrkVgapzsWURKbopzRTNrCeQKA1q2qfpqStKjQ\nkOgvxY0ca1ZahCrHvrUYQ0PocpMwWdXOKwyK49c0tMeQgpABLp79qPK4AQKBgQC9\nDZd5iDUHKvZAVDosbgyPsyonFGer/2OLGD+d39FqauAH+z7Cqu4y+sl2arWE8xQD\nHKPKgAKDWZoyIKo3DKIbNm82H6nGuFkbbMwFrS3npvBzdd0fRhHEIVpaXQxYt9Ij\n8qSIwel4EC7zSEDVs0Ip+0YzXJSyMTmmNseL30Y8AQKBgEoFQt/qPGD+GlVQ5Hh0\nHxePVlKC+EzDGfb/jS3QgdiNq5Yq6plw5mWHFkuih9XdREBoN6jLS2zob/S5iyCh\n/WZXlXgVxbQzCYvDeqbalwZ68T/O/phKwZ+I3UFXjuNGpvfDQ5jfvWMrUzhJS6VS\nkjGAqehmqsFfuHQnlassTvxH\n-----END PRIVATE KEY-----\n",
  "client_email": "firebase-adminsdk-b4fr6@youworkforpharma.iam.gserviceaccount.com",
  "client_id": "116179100146635876552",
  "auth_uri": "https://accounts.google.com/o/oauth2/auth",
  "token_uri": "https://oauth2.googleapis.com/token",
  "auth_provider_x509_cert_url": "https://www.googleapis.com/oauth2/v1/certs",
  "client_x509_cert_url": "https://www.googleapis.com/robot/v1/metadata/x509/firebase-adminsdk-b4fr6%40youworkforpharma.iam.gserviceaccount.com"
}
